module gitlab.qleanlabs.ru/platform/infra/kube-bad-readiness-probe-detector

go 1.16

require (
	github.com/gocarina/gocsv v0.0.0-20210516172204-ca9e8a8ddea8
	github.com/sirupsen/logrus v1.8.1
	github.com/stretchr/testify v1.6.1
	gopkg.in/yaml.v3 v3.0.0-20200313102051-9f266ea9e77c
	k8s.io/api v0.20.4
	k8s.io/apimachinery v0.20.4
	k8s.io/client-go v0.20.4
)
